
{
  "header": {
    "reportVersion": 1,
    "event": "Allocation failed - JavaScript heap out of memory",
    "trigger": "FatalError",
    "filename": "report.20210407.205717.4784.0.001.json",
    "dumpEventTime": "2021-04-07T20:57:17Z",
    "dumpEventTimeStamp": "1617821837783",
    "processId": 4784,
    "cwd": "C:\\development\\gitbook",
    "commandLine": [
      "node",
      "C:\\development\\gitbook\\node_modules\\.bin\\\\..\\gitbook-cli\\bin\\gitbook.js",
      "serve"
    ],
    "nodejsVersion": "v12.13.1",
    "wordSize": 64,
    "arch": "x64",
    "platform": "win32",
    "componentVersions": {
      "node": "12.13.1",
      "v8": "7.7.299.13-node.16",
      "uv": "1.33.1",
      "zlib": "1.2.11",
      "brotli": "1.0.7",
      "ares": "1.15.0",
      "modules": "72",
      "nghttp2": "1.39.2",
      "napi": "5",
      "llhttp": "1.1.4",
      "http_parser": "2.8.0",
      "openssl": "1.1.1d",
      "cldr": "35.1",
      "icu": "64.2",
      "tz": "2019c",
      "unicode": "12.1"
    },
    "release": {
      "name": "node",
      "lts": "Erbium",
      "headersUrl": "https://nodejs.org/download/release/v12.13.1/node-v12.13.1-headers.tar.gz",
      "sourceUrl": "https://nodejs.org/download/release/v12.13.1/node-v12.13.1.tar.gz",
      "libUrl": "https://nodejs.org/download/release/v12.13.1/win-x64/node.lib"
    },
    "osName": "Windows_NT",
    "osRelease": "10.0.19042",
    "osVersion": "Windows 10 Education",
    "osMachine": "x86_64",
    "cpus": [
      {
        "model": "Intel(R) Core(TM) i7-6700T CPU @ 2.80GHz",
        "speed": 2808,
        "user": 38672171,
        "nice": 0,
        "sys": 22690031,
        "idle": 227203859,
        "irq": 4630890
      },
      {
        "model": "Intel(R) Core(TM) i7-6700T CPU @ 2.80GHz",
        "speed": 2808,
        "user": 21794921,
        "nice": 0,
        "sys": 14489859,
        "idle": 252281062,
        "irq": 565375
      },
      {
        "model": "Intel(R) Core(TM) i7-6700T CPU @ 2.80GHz",
        "speed": 2808,
        "user": 26291281,
        "nice": 0,
        "sys": 16206718,
        "idle": 246067843,
        "irq": 260687
      },
      {
        "model": "Intel(R) Core(TM) i7-6700T CPU @ 2.80GHz",
        "speed": 2808,
        "user": 16762812,
        "nice": 0,
        "sys": 8693234,
        "idle": 263109796,
        "irq": 111625
      },
      {
        "model": "Intel(R) Core(TM) i7-6700T CPU @ 2.80GHz",
        "speed": 2808,
        "user": 22414375,
        "nice": 0,
        "sys": 14098718,
        "idle": 252052750,
        "irq": 190875
      },
      {
        "model": "Intel(R) Core(TM) i7-6700T CPU @ 2.80GHz",
        "speed": 2808,
        "user": 15050046,
        "nice": 0,
        "sys": 9936812,
        "idle": 263578984,
        "irq": 108953
      },
      {
        "model": "Intel(R) Core(TM) i7-6700T CPU @ 2.80GHz",
        "speed": 2808,
        "user": 20700046,
        "nice": 0,
        "sys": 13297625,
        "idle": 254568171,
        "irq": 173375
      },
      {
        "model": "Intel(R) Core(TM) i7-6700T CPU @ 2.80GHz",
        "speed": 2808,
        "user": 22575484,
        "nice": 0,
        "sys": 12899734,
        "idle": 253090625,
        "irq": 94718
      }
    ],
    "networkInterfaces": [
      {
        "name": "vEthernet (Default Switch)",
        "internal": false,
        "mac": "00:15:5d:0b:3c:1b",
        "address": "fe80::715d:de20:5d25:8bc4",
        "netmask": "ffff:ffff:ffff:ffff::",
        "family": "IPv6",
        "scopeid": 48
      },
      {
        "name": "vEthernet (Default Switch)",
        "internal": false,
        "mac": "00:15:5d:0b:3c:1b",
        "address": "172.27.128.1",
        "netmask": "255.255.240.0",
        "family": "IPv4"
      },
      {
        "name": "Ethernet",
        "internal": false,
        "mac": "f8:32:e4:bc:65:87",
        "address": "fe80::4153:98c6:4cc1:1dae",
        "netmask": "ffff:ffff:ffff:ffff::",
        "family": "IPv6",
        "scopeid": 2
      },
      {
        "name": "Ethernet",
        "internal": false,
        "mac": "f8:32:e4:bc:65:87",
        "address": "10.0.0.4",
        "netmask": "255.255.255.0",
        "family": "IPv4"
      },
      {
        "name": "Loopback Pseudo-Interface 1",
        "internal": true,
        "mac": "00:00:00:00:00:00",
        "address": "::1",
        "netmask": "ffff:ffff:ffff:ffff:ffff:ffff:ffff:ffff",
        "family": "IPv6",
        "scopeid": 0
      },
      {
        "name": "Loopback Pseudo-Interface 1",
        "internal": true,
        "mac": "00:00:00:00:00:00",
        "address": "127.0.0.1",
        "netmask": "255.0.0.0",
        "family": "IPv4"
      }
    ],
    "host": "Ragnarok"
  },
  "javascriptStack": {
    "message": "No stack.",
    "stack": [
      "Unavailable."
    ]
  },
  "nativeStack": [
    {
      "pc": "0x00007ff7bfe71729",
      "symbol": "std::basic_ostream<char,std::char_traits<char> >::operator<<+10873"
    },
    {
      "pc": "0x00007ff7bfe75b4c",
      "symbol": "std::basic_ostream<char,std::char_traits<char> >::operator<<+28316"
    },
    {
      "pc": "0x00007ff7bfe74b08",
      "symbol": "std::basic_ostream<char,std::char_traits<char> >::operator<<+24152"
    },
    {
      "pc": "0x00007ff7bff6369b",
      "symbol": "v8::base::CPU::has_sse+37723"
    },
    {
      "pc": "0x00007ff7c07682de",
      "symbol": "v8::Isolate::ReportExternalAllocationLimitReached+94"
    },
    {
      "pc": "0x00007ff7c0750321",
      "symbol": "v8::SharedArrayBuffer::Externalize+833"
    },
    {
      "pc": "0x00007ff7c061dbec",
      "symbol": "v8::internal::Heap::EphemeronKeyWriteBarrierFromCode+1436"
    },
    {
      "pc": "0x00007ff7c0628f90",
      "symbol": "v8::internal::Heap::ProtectUnprotectedMemoryChunks+1312"
    },
    {
      "pc": "0x00007ff7c0625ac4",
      "symbol": "v8::internal::Heap::PageFlagsAreConsistent+3204"
    },
    {
      "pc": "0x00007ff7c061b353",
      "symbol": "v8::internal::Heap::CollectGarbage+1283"
    },
    {
      "pc": "0x00007ff7c0619b24",
      "symbol": "v8::internal::Heap::AddRetainedMap+2356"
    },
    {
      "pc": "0x00007ff7c063adf5",
      "symbol": "v8::internal::Factory::NewFillerObject+53"
    },
    {
      "pc": "0x00007ff7c03a6e19",
      "symbol": "v8::internal::interpreter::JumpTableTargetOffsets::iterator::operator=+4057"
    },
    {
      "pc": "0x00007ff7c0b9404d",
      "symbol": "v8::internal::SetupIsolateDelegate::SetupHeap+567949"
    },
    {
      "pc": "0x00007ff7c0b13393",
      "symbol": "v8::internal::SetupIsolateDelegate::SetupHeap+40403"
    },
    {
      "pc": "0x000002e64ecef26a",
      "symbol": ""
    }
  ],
  "javascriptHeap": {
    "totalMemory": 2152103936,
    "totalCommittedMemory": 2152103936,
    "usedMemory": 2097979016,
    "availableMemory": 47841912,
    "memoryLimit": 2197815296,
    "heapSpaces": {
      "read_only_space": {
        "memorySize": 262144,
        "committedMemory": 262144,
        "capacity": 261872,
        "used": 32296,
        "available": 229576
      },
      "new_space": {
        "memorySize": 2097152,
        "committedMemory": 2097152,
        "capacity": 1047488,
        "used": 219072,
        "available": 828416
      },
      "old_space": {
        "memorySize": 2132389888,
        "committedMemory": 2132389888,
        "capacity": 2085579344,
        "used": 2085554272,
        "available": 25072
      },
      "code_space": {
        "memorySize": 1998848,
        "committedMemory": 1998848,
        "capacity": 1670112,
        "used": 1670112,
        "available": 0
      },
      "map_space": {
        "memorySize": 6295552,
        "committedMemory": 6295552,
        "capacity": 1536320,
        "used": 1536320,
        "available": 0
      },
      "large_object_space": {
        "memorySize": 9011200,
        "committedMemory": 9011200,
        "capacity": 8963392,
        "used": 8963392,
        "available": 0
      },
      "code_large_object_space": {
        "memorySize": 49152,
        "committedMemory": 49152,
        "capacity": 3552,
        "used": 3552,
        "available": 0
      },
      "new_large_object_space": {
        "memorySize": 0,
        "committedMemory": 0,
        "capacity": 1047488,
        "used": 0,
        "available": 1047488
      }
    }
  },
  "resourceUsage": {
    "userCpuSeconds": 1295.09,
    "kernelCpuSeconds": 1626.72,
    "cpuConsumptionPercent": 80.6462,
    "maxRss": 3912830976,
    "pageFaults": {
      "IORequired": 3230518,
      "IONotRequired": 0
    },
    "fsActivity": {
      "reads": 15191,
      "writes": 3789
    }
  },
  "libuv": [
  ],
  "environmentVariables": {
    "=C:": "C:\\development\\gitbook",
    "ADSK_3DSMAX_x64_2016": "D:\\Program Files\\Autodesk\\3ds Max 2016\\",
    "ADSK_CLM_WPAD_PROXY_CHECK": "FALSE",
    "ALLUSERSPROFILE": "C:\\ProgramData",
    "APPDATA": "C:\\Users\\Sheogorath\\AppData\\Roaming",
    "BESIEGE_GAME_ASSEMBLIES": "D:/SteamLibrary/steamapps/common/Besiege/Besiege_Data\\Managed/",
    "BESIEGE_UNITY_ASSEMBLIES": "D:/SteamLibrary/steamapps/common/Besiege/Besiege_Data\\Managed/",
    "CHROME_CRASHPAD_PIPE_NAME": "\\\\.\\pipe\\crashpad_15252_EIUFKWUCZQXUDTRX",
    "COLORTERM": "truecolor",
    "CommonProgramFiles": "C:\\Program Files\\Common Files",
    "CommonProgramFiles(x86)": "C:\\Program Files (x86)\\Common Files",
    "CommonProgramW6432": "C:\\Program Files\\Common Files",
    "COMPUTERNAME": "RAGNAROK",
    "ComSpec": "C:\\WINDOWS\\system32\\cmd.exe",
    "DriverData": "C:\\Windows\\System32\\Drivers\\DriverData",
    "FPS_BROWSER_APP_PROFILE_STRING": "Internet Explorer",
    "FPS_BROWSER_USER_PROFILE_STRING": "Default",
    "GIT_ASKPASS": "d:\\Program Files\\Microsoft VS Code\\resources\\app\\extensions\\git\\dist\\askpass.sh",
    "GTK_BASEPATH": "C:\\Program Files (x86)\\GtkSharp\\2.12\\",
    "HOME": "C:\\Users\\Sheogorath",
    "HOMEDRIVE": "C:",
    "HOMEPATH": "\\Users\\Sheogorath",
    "HOOPS_LICENSE_KEY": "c480f7b0c8c5d9481972b65e5bb8%;feae791a3ea8364138cf2d013afcdba1c5161243159cce85783736b215543765278a49565401db0f07d7a21c7c8e79b7e332b480902bcbaca254b0728a1312b970b35c5f62ba9daa4739dc50e3a32e93b9be312778f2db4fa3083142a5a0de18b12616a6e748ba5d0daf5493279a73406f200e%;d0b9",
    "INIT_CWD": "C:\\development\\gitbook",
    "LANG": "de_DE.UTF-8",
    "LOCALAPPDATA": "C:\\Users\\Sheogorath\\AppData\\Local",
    "LOGONSERVER": "\\\\RAGNAROK",
    "NODE": "C:\\Program Files\\nodejs\\node.exe",
    "npm_config_argv": "{\"remain\":[],\"cooked\":[\"run\",\"gitbook\"],\"original\":[\"gitbook\",\"serve\"]}",
    "npm_config_bin_links": "true",
    "npm_config_ignore_optional": "",
    "npm_config_ignore_scripts": "",
    "npm_config_init_license": "MIT",
    "npm_config_init_version": "1.0.0",
    "npm_config_registry": "https://registry.yarnpkg.com",
    "npm_config_save_prefix": "^",
    "npm_config_strict_ssl": "true",
    "npm_config_user_agent": "yarn/1.7.0 npm/? node/v12.13.1 win32 x64",
    "npm_config_version_commit_hooks": "true",
    "npm_config_version_git_message": "v%s",
    "npm_config_version_git_sign": "",
    "npm_config_version_git_tag": "true",
    "npm_config_version_tag_prefix": "v",
    "npm_execpath": "C:\\Program Files (x86)\\Yarn\\bin\\yarn.js",
    "npm_lifecycle_event": "gitbook",
    "npm_node_execpath": "C:\\Program Files\\nodejs\\node.exe",
    "npm_package_dependencies_gitbook_cli": "^2.3.2",
    "npm_package_description": "This project's static Pages are built by [GitLab CI][ci], following the steps defined in [`.gitlab-ci.yml`](.gitlab-ci.yml):",
    "npm_package_name": "",
    "npm_package_readmeFilename": "README.md",
    "npm_package_version": "",
    "NUMBER_OF_PROCESSORS": "8",
    "OneDrive": "C:\\Users\\Sheogorath\\OneDrive",
    "OneDriveConsumer": "C:\\Users\\Sheogorath\\OneDrive",
    "ORIGINAL_XDG_CURRENT_DESKTOP": "undefined",
    "OS": "Windows_NT",
    "Path": "C:\\development\\gitbook\\node_modules\\.bin;C:\\Users\\Sheogorath\\AppData\\Local\\Yarn\\Data\\link\\node_modules\\.bin;C:\\development\\gitbook\\node_modules\\.bin;C:\\Users\\Sheogorath\\AppData\\Local\\Yarn\\Data\\link\\node_modules\\.bin;C:\\Program Files\\libexec\\lib\\node_modules\\npm\\bin\\node-gyp-bin;C:\\Program Files\\lib\\node_modules\\npm\\bin\\node-gyp-bin;C:\\Program Files\\nodejs\\node_modules\\npm\\bin\\node-gyp-bin;C:\\Program Files\\nodejs;C:\\Program Files (x86)\\Common Files\\Oracle\\Java\\javapath;C:\\Program Files (x86)\\Razer Chroma SDK\\bin;C:\\Program Files\\Razer Chroma SDK\\bin;C:\\Program Files (x86)\\Razer\\ChromaBroadcast\\bin;C:\\Program Files\\Razer\\ChromaBroadcast\\bin;C:\\ProgramData\\Oracle\\Java\\javapath;C:\\Program Files (x86)\\Intel\\iCLS Client\\;C:\\Program Files\\Intel\\iCLS Client\\;C:\\Windows\\system32;C:\\Windows;C:\\Windows\\System32\\Wbem;C:\\Windows\\System32\\WindowsPowerShell\\v1.0\\;C:\\Program Files (x86)\\Intel\\Intel(R) Management Engine Components\\DAL;C:\\Program Files\\Intel\\Intel(R) Management Engine Components\\DAL;C:\\Program Files (x86)\\Intel\\Intel(R) Management Engine Components\\IPT;C:\\Program Files\\Intel\\Intel(R) Management Engine Components\\IPT;C:\\Users\\Sheogorath\\.dnx\\bin;C:\\Program Files\\Microsoft DNX\\Dnvm\\;C:\\Program Files\\Common Files\\Autodesk Shared\\;C:\\Program Files (x86)\\NVIDIA Corporation\\PhysX\\Common;C:\\Program Files (x86)\\Autodesk\\Backburner\\;C:\\Program Files (x86)\\GtkSharp\\2.12\\bin;C:\\Program Files (x86)\\MiKTeX 2.9\\miktex\\bin\\;C:\\Program Files (x86)\\Windows Kits\\10\\Windows Performance Toolkit\\;C:\\WINDOWS\\system32;C:\\WINDOWS;C:\\WINDOWS\\System32\\Wbem;C:\\WINDOWS\\System32\\WindowsPowerShell\\v1.0\\;C:\\Program Files\\Microsoft SQL Server\\130\\Tools\\Binn\\;C:\\Program Files\\Microsoft\\Web Platform Installer\\;C:\\Program Files\\TortoiseSVN\\bin;C:\\Program Files\\dotnet\\;C:\\WINDOWS\\System32\\OpenSSH\\;C:\\Program Files (x86)\\Yarn\\bin\\;D:\\Program Files\\Microsoft VS Code\\bin;D:\\Program Files (x86)\\Brackets\\command;C:\\WINDOWS\\system32\\config\\systemprofile\\AppData\\Local\\Microsoft\\WindowsApps;C:\\Program Files\\NVIDIA Corporation\\NVIDIA NvDLISR;C:\\Program Files\\Git\\cmd;C:\\Program Files\\nodejs\\;C:\\Program Files (x86)\\WinSCP\\;C:\\Program Files\\Docker\\Docker\\resources\\bin;C:\\ProgramData\\DockerDesktop\\version-bin;C:\\Program Files\\Microsoft SQL Server\\120\\Tools\\Binn\\;C:\\Program Files (x86)\\dotnet\\;C:\\WINDOWS\\system32;C:\\WINDOWS;C:\\WINDOWS\\System32\\Wbem;C:\\WINDOWS\\System32\\WindowsPowerShell\\v1.0\\;C:\\WINDOWS\\System32\\OpenSSH\\;C:\\Users\\Sheogorath\\.windows-build-tools\\python27\\;C:\\Program Files (x86)\\Google\\Chrome\\Application;C:\\Program Files (x86)\\Intel\\iCLS Client\\;C:\\Program Files\\Intel\\iCLS Client\\;C:\\Windows\\system32;C:\\Windows;C:\\Windows\\System32\\Wbem;C:\\Windows\\System32\\WindowsPowerShell\\v1.0\\;C:\\Program Files (x86)\\Intel\\Intel(R) Management Engine Components\\DAL;C:\\Program Files\\Intel\\Intel(R) Management Engine Components\\DAL;C:\\Program Files (x86)\\Intel\\Intel(R) Management Engine Components\\IPT;C:\\Program Files\\Intel\\Intel(R) Management Engine Components\\IPT;C:\\Program Files (x86)\\Skype\\Phone\\;C:\\Windows\\system32\\config\\systemprofile\\.dnx\\bin;C:\\Program Files\\Microsoft DNX\\Dnvm\\;C:\\Program Files\\Microsoft SQL Server\\120\\Tools\\Binn\\;C:\\Program Files (x86)\\Brackets\\command;C:\\Users\\Sheogorath\\AppData\\Local\\Microsoft\\WindowsApps;D:\\Program Files\\Microsoft VS Code\\bin;C:\\Users\\Sheogorath\\AppData\\Local\\Yarn\\bin;C:\\Program Files\\MongoDB\\Server\\3.6\\bin;C:\\Users\\Sheogorath\\AppData\\Roaming\\npm;C:\\Program Files\\MongoDB\\Server\\4.2\\bin;C:\\Users\\Sheogorath\\.dotnet\\tools;C:\\Users\\Sheogorath\\AppData\\Local\\Microsoft\\WindowsApps;",
    "PATHEXT": ".COM;.EXE;.BAT;.CMD;.VBS;.VBE;.JSE;.WSF;.WSH;.MSC;.CPL",
    "PROCESSOR_ARCHITECTURE": "AMD64",
    "PROCESSOR_IDENTIFIER": "Intel64 Family 6 Model 94 Stepping 3, GenuineIntel",
    "PROCESSOR_LEVEL": "6",
    "PROCESSOR_REVISION": "5e03",
    "ProgramData": "C:\\ProgramData",
    "ProgramFiles": "C:\\Program Files",
    "ProgramFiles(x86)": "C:\\Program Files (x86)",
    "ProgramW6432": "C:\\Program Files",
    "PROMPT": "$P$G",
    "PSModulePath": "C:\\Users\\Sheogorath\\Documents\\WindowsPowerShell\\Modules;C:\\Program Files\\WindowsPowerShell\\Modules;C:\\WINDOWS\\system32\\WindowsPowerShell\\v1.0\\Modules;C:\\Program Files\\Intel\\",
    "PUBLIC": "C:\\Users\\Public",
    "SESSIONNAME": "Console",
    "SystemDrive": "C:",
    "SystemRoot": "C:\\WINDOWS",
    "TEMP": "C:\\Users\\SHEOGO~1\\AppData\\Local\\Temp",
    "TERM_PROGRAM": "vscode",
    "TERM_PROGRAM_VERSION": "1.52.1",
    "TMP": "C:\\Users\\SHEOGO~1\\AppData\\Local\\Temp",
    "USERDOMAIN": "RAGNAROK",
    "USERDOMAIN_ROAMINGPROFILE": "RAGNAROK",
    "USERNAME": "Sheogorath",
    "USERPROFILE": "C:\\Users\\Sheogorath",
    "VS140COMNTOOLS": "C:\\Program Files (x86)\\Microsoft Visual Studio 14.0\\Common7\\Tools\\",
    "VSCODE_GIT_ASKPASS_MAIN": "d:\\Program Files\\Microsoft VS Code\\resources\\app\\extensions\\git\\dist\\askpass-main.js",
    "VSCODE_GIT_ASKPASS_NODE": "D:\\Program Files\\Microsoft VS Code\\Code.exe",
    "VSCODE_GIT_IPC_HANDLE": "\\\\.\\pipe\\vscode-git-c4a786988d-sock",
    "windir": "C:\\WINDOWS",
    "YARN_WRAP_OUTPUT": "false"
  },
  "sharedObjects": [
    "C:\\Program Files\\nodejs\\node.exe",
    "C:\\WINDOWS\\SYSTEM32\\ntdll.dll",
    "C:\\WINDOWS\\System32\\KERNEL32.DLL",
    "C:\\WINDOWS\\System32\\KERNELBASE.dll",
    "C:\\WINDOWS\\System32\\WS2_32.dll",
    "C:\\WINDOWS\\System32\\RPCRT4.dll",
    "C:\\WINDOWS\\System32\\ADVAPI32.dll",
    "C:\\WINDOWS\\SYSTEM32\\dbghelp.dll",
    "C:\\WINDOWS\\System32\\msvcrt.dll",
    "C:\\WINDOWS\\System32\\ucrtbase.dll",
    "C:\\WINDOWS\\System32\\sechost.dll",
    "C:\\WINDOWS\\System32\\USER32.dll",
    "C:\\WINDOWS\\System32\\win32u.dll",
    "C:\\WINDOWS\\System32\\GDI32.dll",
    "C:\\WINDOWS\\System32\\gdi32full.dll",
    "C:\\WINDOWS\\System32\\msvcp_win.dll",
    "C:\\WINDOWS\\System32\\PSAPI.DLL",
    "C:\\WINDOWS\\System32\\CRYPT32.dll",
    "C:\\WINDOWS\\System32\\bcrypt.dll",
    "C:\\WINDOWS\\SYSTEM32\\IPHLPAPI.DLL",
    "C:\\WINDOWS\\SYSTEM32\\USERENV.dll",
    "C:\\WINDOWS\\SYSTEM32\\WINMM.dll",
    "C:\\WINDOWS\\System32\\IMM32.DLL",
    "C:\\WINDOWS\\SYSTEM32\\powrprof.dll",
    "C:\\WINDOWS\\SYSTEM32\\UMPDC.dll",
    "C:\\WINDOWS\\SYSTEM32\\CRYPTBASE.DLL",
    "C:\\WINDOWS\\system32\\uxtheme.dll",
    "C:\\WINDOWS\\System32\\combase.dll",
    "C:\\WINDOWS\\system32\\mswsock.dll",
    "C:\\WINDOWS\\SYSTEM32\\kernel.appcore.dll",
    "C:\\WINDOWS\\System32\\bcryptprimitives.dll",
    "C:\\WINDOWS\\System32\\NSI.dll",
    "C:\\WINDOWS\\SYSTEM32\\dhcpcsvc6.DLL",
    "C:\\WINDOWS\\SYSTEM32\\dhcpcsvc.DLL",
    "C:\\WINDOWS\\SYSTEM32\\DNSAPI.dll",
    "C:\\WINDOWS\\system32\\napinsp.dll",
    "C:\\WINDOWS\\system32\\pnrpnsp.dll",
    "C:\\WINDOWS\\system32\\wshbth.dll",
    "C:\\WINDOWS\\system32\\NLAapi.dll",
    "C:\\WINDOWS\\System32\\winrnr.dll",
    "C:\\Program Files\\Bonjour\\mdnsNSP.dll"
  ]
}